<svg width="76" height="19" viewBox="0 0 76 19" fill="none" xmlns="http://www.w3.org/2000/svg">
<path fill-rule="evenodd" clip-rule="evenodd" d="M48.6793 0.290527C49.1382 0.414891 49.2693 0.746527 49.313 1.16107C49.4877 2.90216 49.6844 4.64326 49.881 6.38435C50.0558 7.91817 50.2087 9.45198 50.3617 10.9858C50.5365 12.5196 50.6894 14.0534 50.8642 15.5873C50.9297 16.2713 51.0171 16.976 51.0827 17.66C51.1264 18.1574 50.8642 18.4269 50.3398 18.4269C49.2256 18.4269 48.1113 18.4269 46.9752 18.4269C46.4727 18.4269 46.276 18.2611 46.2105 17.7843C46.0575 16.4578 45.9046 15.1313 45.7516 13.8047C45.5769 12.3331 45.4239 10.8614 45.2491 9.3898C45.2273 9.1618 45.2054 8.95453 45.118 8.7058C45.0962 8.76798 45.0743 8.85089 45.0525 8.91307C44.1349 11.8771 43.2391 14.8411 42.3433 17.8051C42.1903 18.3025 42.0156 18.4269 41.4693 18.4269C40.5299 18.4269 39.5904 18.4269 38.6727 18.4269C38.1265 18.4269 37.9517 18.3025 37.7988 17.8051C36.903 14.8411 35.9854 11.8771 35.0896 8.91307C35.0677 8.85089 35.0459 8.78871 34.9803 8.72653C34.9366 9.01671 34.8929 9.30689 34.8711 9.57635C34.5871 12.1051 34.303 14.6545 34.019 17.1833C33.9972 17.4113 33.9753 17.6393 33.9316 17.8673C33.8661 18.2196 33.6694 18.4062 33.298 18.4062C32.1182 18.4269 30.9165 18.4269 29.7367 18.4062C29.2779 18.4062 29.0375 18.0953 29.0812 17.6393C29.2779 15.7945 29.4964 13.9498 29.693 12.1051C29.8678 10.4054 30.0426 8.7058 30.2392 7.00616C30.4358 5.16144 30.6543 3.29598 30.851 1.45125C30.8728 1.32689 30.8728 1.22325 30.8728 1.09889C30.8947 0.705073 31.0476 0.394164 31.4846 0.290527C33.014 0.290527 34.5652 0.290527 36.0946 0.290527C36.4442 0.373436 36.619 0.601436 36.7064 0.933073C37.6022 3.77271 38.4979 6.61235 39.3937 9.43126C39.6122 10.1567 39.8526 10.8614 40.0929 11.6491C40.1584 11.504 40.1803 11.4211 40.224 11.3174C41.3164 7.87671 42.4088 4.43598 43.5013 0.974527C43.6105 0.642891 43.7634 0.394164 44.1349 0.290527C45.5987 0.290527 47.15 0.290527 48.6793 0.290527Z" fill="white"/>
<path fill-rule="evenodd" clip-rule="evenodd" d="M72.9071 0.290527C73.3659 0.394164 73.497 0.7258 73.5407 1.14035C73.6936 2.67416 73.8684 4.20798 74.0432 5.7418C74.1962 7.1098 74.3273 8.4778 74.4802 9.8458C74.6331 11.2138 74.7861 12.6025 74.939 13.9705C75.0701 15.152 75.2012 16.3334 75.3323 17.5356C75.3323 17.5978 75.3323 17.66 75.3323 17.7014C75.3323 18.1367 75.1138 18.4062 74.655 18.4062C73.497 18.4269 72.339 18.4062 71.1592 18.4062C70.7441 18.4062 70.5038 18.1782 70.4601 17.7843C70.176 15.2971 69.892 12.8098 69.608 10.3225C69.5643 9.86653 69.4987 9.41053 69.455 8.9338C69.455 8.85089 69.4332 8.76798 69.3676 8.7058C69.1055 9.57635 68.8433 10.4469 68.5592 11.3174C67.9038 13.4731 67.2483 15.6494 66.571 17.8051C66.4181 18.3025 66.2652 18.4062 65.6971 18.4062C64.7576 18.4062 63.8181 18.4062 62.9005 18.4062C62.3543 18.4062 62.1795 18.2818 62.0265 17.7843C61.1308 14.8411 60.235 11.8978 59.3392 8.95453C59.3173 8.87162 59.2736 8.78871 59.2081 8.7058C59.1644 9.03744 59.1207 9.34835 59.0988 9.67998C58.8367 11.9185 58.5963 14.1363 58.356 16.3749C58.3123 16.8309 58.2468 17.3076 58.2031 17.7636C58.1594 18.1989 57.919 18.4062 57.4384 18.4269C56.3022 18.4269 55.188 18.4269 54.0518 18.4269C53.5056 18.4269 53.2653 18.1367 53.3308 17.6185C53.5493 15.5873 53.7678 13.556 53.9863 11.504C54.2048 9.49344 54.4233 7.46216 54.6418 5.45162C54.7947 3.97998 54.9695 2.50835 55.1224 1.03671C55.1661 0.663618 55.3409 0.435618 55.7123 0.311255C57.2417 0.311255 58.793 0.311255 60.3224 0.311255C60.7156 0.394164 60.8686 0.663618 60.9778 1.01598C61.9173 3.97998 62.8568 6.94398 63.7963 9.90798C63.9711 10.4676 64.1459 11.048 64.3425 11.6076C64.4299 11.5247 64.4517 11.4418 64.4954 11.3589C65.5879 7.91816 66.6803 4.47744 67.7509 1.01598C67.8601 0.684346 68.013 0.435618 68.3626 0.311255C69.8265 0.290527 71.3559 0.290527 72.9071 0.290527Z" fill="white"/>
<path fill-rule="evenodd" clip-rule="evenodd" d="M11.4476 0.290039C11.819 0.372948 11.9719 0.621675 12.103 0.932585C14.3534 6.44604 16.6038 11.9388 18.8542 17.4315C19.0071 17.8253 18.9853 18.0948 18.7231 18.2606C18.592 18.3435 18.3954 18.4057 18.2424 18.4057C17.0626 18.4264 15.9046 18.4057 14.7248 18.4057C14.3097 18.4057 14.1349 18.2606 14.0038 17.8875C13.7416 17.1828 13.4795 16.478 13.2173 15.7526C13.1517 15.566 13.0643 15.5039 12.8459 15.5039C10.7484 15.5039 8.6291 15.5039 6.53164 15.5039C6.35685 15.5039 6.24761 15.5453 6.20391 15.7319C5.96358 16.4366 5.7014 17.1206 5.43922 17.8253C5.24258 18.3228 5.11149 18.4264 4.54343 18.4264C3.4947 18.4264 2.46782 18.4057 1.41909 18.4264C0.960275 18.4264 0.58885 18.3642 0.414062 17.9082C0.414062 17.8875 0.414062 17.8668 0.414062 17.8668C0.457759 17.7217 0.501456 17.5766 0.545153 17.4522C2.7737 11.9388 5.0241 6.44604 7.27449 0.932585C7.40558 0.642403 7.55852 0.393675 7.88625 0.290039C9.06607 0.290039 10.2677 0.290039 11.4476 0.290039ZM11.6223 11.5242C10.9669 9.78313 10.3333 8.06277 9.69967 6.36313C9.67783 6.36313 9.65598 6.36313 9.63413 6.36313C9.00052 8.0835 8.36692 9.78313 7.71146 11.5242C9.06607 11.5242 10.3333 11.5242 11.6223 11.5242Z" fill="white"/>
<path fill-rule="evenodd" clip-rule="evenodd" d="M25.5638 0.290527C26.0663 0.414891 26.1974 0.746527 26.1974 1.20253C26.1974 6.63307 26.1974 12.0843 26.1974 17.5149C26.1974 17.5563 26.1974 17.6185 26.1974 17.66C26.1974 18.1574 25.9571 18.3854 25.4327 18.4062C24.8428 18.4062 24.2529 18.4062 23.6848 18.4062C23.1168 18.4062 22.5705 18.4062 22.0025 18.4062C21.3689 18.4062 21.1504 18.1782 21.1504 17.5978C21.1504 15.2142 21.1504 12.8305 21.1504 10.4676C21.1504 7.37926 21.1504 4.29089 21.1504 1.22325C21.1504 0.767255 21.2596 0.435618 21.7621 0.290527C23.0075 0.290527 24.2747 0.290527 25.5638 0.290527Z" fill="white"/>
</svg>
