<svg width="15" height="15" viewBox="0 0 15 15" fill="none" xmlns="http://www.w3.org/2000/svg">
<g opacity="0.6">
<rect y="7" width="15" height="1" fill="black"/>
<rect x="7" y="15" width="15" height="1" transform="rotate(-90 7 15)" fill="black"/>
</g>
</svg>
