<svg width="98" height="98" viewBox="0 0 98 98" fill="none" xmlns="http://www.w3.org/2000/svg">
<circle opacity="0.8" cx="49" cy="49" r="49" fill="white"/>
<path d="M51.8376 32.9996L68 48.7139L51.8376 64.4282" stroke="black" stroke-width="2.85714"/>
<rect width="40" height="2.77792" transform="matrix(-1 0 0 1 68 47.3252)" fill="black"/>
</svg>
