<svg width="35" height="35" viewBox="0 0 35 35" fill="none" xmlns="http://www.w3.org/2000/svg">
<circle opacity="0.2" cx="17.5" cy="17.5" r="17.5" fill="white"/>
<circle cx="24.5" cy="10.5" r="2.5" fill="white"/>
</svg>
